<?xml version="1.0" encoding="UTF-8" standalone="no"?>
<!-- Created with Inkscape (http://www.inkscape.org/) -->

<svg
   xmlns:dc="http://purl.org/dc/elements/1.1/"
   xmlns:cc="http://creativecommons.org/ns#"
   xmlns:rdf="http://www.w3.org/1999/02/22-rdf-syntax-ns#"
   xmlns:svg="http://www.w3.org/2000/svg"
   xmlns="http://www.w3.org/2000/svg"
   xmlns:xlink="http://www.w3.org/1999/xlink"
   xmlns:sodipodi="http://sodipodi.sourceforge.net/DTD/sodipodi-0.dtd"
   xmlns:inkscape="http://www.inkscape.org/namespaces/inkscape"
   width="250"
   height="286"
   id="svg2"
   version="1.1"
   inkscape:version="0.91 r13725"
   sodipodi:docname="duchesse.svg">
  <defs
     id="defs4">
    <inkscape:path-effect
       effect="spiro"
       id="path-effect3997"
       is_visible="true" />
    <inkscape:path-effect
       effect="spiro"
       id="path-effect3176"
       is_visible="true" />
    <inkscape:path-effect
       effect="spiro"
       id="path-effect3108"
       is_visible="true" />
    <inkscape:path-effect
       effect="spiro"
       id="path-effect3104"
       is_visible="true" />
  </defs>
  <sodipodi:namedview
     id="base"
     pagecolor="#ffffff"
     bordercolor="#666666"
     borderopacity="1.0"
     inkscape:pageopacity="0.0"
     inkscape:pageshadow="2"
     inkscape:zoom="2.1086546"
     inkscape:cx="105.03984"
     inkscape:cy="153.22728"
     inkscape:document-units="px"
     inkscape:current-layer="layer3"
     showgrid="false"
     inkscape:showpageshadow="false"
     fit-margin-top="0"
     fit-margin-left="0"
     fit-margin-right="0"
     fit-margin-bottom="0"
     inkscape:window-width="1916"
     inkscape:window-height="1038"
     inkscape:window-x="0"
     inkscape:window-y="40"
     inkscape:window-maximized="0" />
  <metadata
     id="metadata7">
    <rdf:RDF>
      <cc:Work
         rdf:about="">
        <dc:format>image/svg+xml</dc:format>
        <dc:type
           rdf:resource="http://purl.org/dc/dcmitype/StillImage" />
        <dc:title />
      </cc:Work>
    </rdf:RDF>
  </metadata>
  <g
     inkscape:groupmode="layer"
     id="layer3"
     inkscape:label="Calque3" />
  <g
     inkscape:label="Calque 1"
     inkscape:groupmode="layer"
     id="layer1"
     transform="translate(-335.10535,-410.02939)"
     sodipodi:insensitive="true"
     style="display:none">
    <image
       y="410.02939"
       x="335.10535"
       id="image3047"
       xlink:href="data:image/jpeg;base64,/9j/4AAQSkZJRgABAQAAAQABAAD/2wBDAAgGBgcGBQgHBwcJCQgKDBQNDAsLDBkSEw8UHRofHh0a HBwgJC4nICIsIxwcKDcpLDAxNDQ0Hyc5PTgyPC4zNDL/2wBDAQkJCQwLDBgNDRgyIRwhMjIyMjIy MjIyMjIyMjIyMjIyMjIyMjIyMjIyMjIyMjIyMjIyMjIyMjIyMjIyMjIyMjL/wAARCAEeAPoDASIA AhEBAxEB/8QAHwAAAQUBAQEBAQEAAAAAAAAAAAECAwQFBgcICQoL/8QAtRAAAgEDAwIEAwUFBAQA AAF9AQIDAAQRBRIhMUEGE1FhByJxFDKBkaEII0KxwRVS0fAkM2JyggkKFhcYGRolJicoKSo0NTY3 ODk6Q0RFRkdISUpTVFVWV1hZWmNkZWZnaGlqc3R1dnd4eXqDhIWGh4iJipKTlJWWl5iZmqKjpKWm p6ipqrKztLW2t7i5usLDxMXGx8jJytLT1NXW19jZ2uHi4+Tl5ufo6erx8vP09fb3+Pn6/8QAHwEA AwEBAQEBAQEBAQAAAAAAAAECAwQFBgcICQoL/8QAtREAAgECBAQDBAcFBAQAAQJ3AAECAxEEBSEx BhJBUQdhcRMiMoEIFEKRobHBCSMzUvAVYnLRChYkNOEl8RcYGRomJygpKjU2Nzg5OkNERUZHSElK U1RVVldYWVpjZGVmZ2hpanN0dXZ3eHl6goOEhYaHiImKkpOUlZaXmJmaoqOkpaanqKmqsrO0tba3 uLm6wsPExcbHyMnK0tPU1dbX2Nna4uPk5ebn6Onq8vP09fb3+Pn6/9oADAMBAAIRAxEAPwD3+iii gAooooAKKKKACiiigAooooAKKKKACiiigAooooAKKKKACiiigAooooAKKKKACiiigAooooAKKKKA CiiigAooooAKKKKACiiigAooooAKKKKACiiigAooooAKKKKACiiigAooooAKKKKACiiigAooooAK KKKACiiigAooooAKKKKACiiigAooooAKKKKACimeYnm+XvXzMbtueceuKfQAUUgIIyDkUtABRRRQ AUUUUAFFFFABRRRQAUUUUAFFFFABRRRQAUUUUAFFFFABRRRQAUUUUAFFFFABRRRQAUUUUAclq4a1 8daVeFWdHhdNsa5bgNk+/wB79K2tDupb/Ro5p5FkkYurMowDhiMj8Kq6q4XxJoY25bfL+XlnNSzM 2lalGVjUWV05EhHHlyHv9G/n9aAL2nHOnW4zkqgQ/UcH9RVquXjunGtQQmXZHBqEkbIG4O+JmT9c 11FABRRRQBzt49/qmszWlhctaR2KhmlHPmSMMhSOhXHWrEOvxRW6nUUa2mSTyZztJRH4xz2Vsgg9 Pek8Og41VmOS2ozfpgf0q5Lbr/aO9lVo7iExSIRkNjkZ/At+dAF1WV1DKQVIyCOhp1ZdlpC6XM5t JphbFOLRm3Ireqk8jvx71LGuqFpDLLaKpX5FSNiVPud3P5CgC/RWM1tr6gsmpWbsOQr2xAPsSGpB c6+6tENOtYpRjE7XG6M+vygbvw/WgDaorm9Ul1bTdPmvLjWLeNVHCpaZJbsoy1Gh32rvqKwaoUDz 2vniILtMeGCj8Tkk/h0oA6SiiigAooooAKKKKACiiigAooooAKKKKACiiigAooooAKKKKAMN3Wfx lFGFDfZbNmLf3WdgB+gNa1xBHcwNDKu5G6isbw8hmv8AWb1/vveNCD/spwK36AODvxcWOp308se0 Tt50AcZObYq2foV3V3YIIBByD3qK4hW4t5ImAIdWXn3GKpaFdrd6TFhiZIR5MuezqMGgDTooqvd3 P2S1efyZp9v/ACzhXc7fQUAU9Jh8i41ROxvC4/4EiN/MmotYu5UvbCys3Au5pQx4B2RD77f0qE3+ sXEhNjo/kCQD99eShQMeqLlqu6ZpYsWknmma4vJsebOwxn0UDsvtQBpUVkaimrXN/Hb2U62lsI97 3Hlh2LZ+6AfzpdKurv7Rd2F+yyXFuVKzKm0Sow4OPXIIOKANaiiucfW9TNzPPFYo2m28/kSZz5rY OC6jpgf59gCHWgZ/FulWt2+LFlMiI33XmGf6Efn71f2s3jTIX5E0/BPoWk4/9BNWdZ0qLV9OktpQ A/3on7o/Y1g6BrcKT3A1i6FvqLBImjnBQBUHByeOSzH8aAOvoqC2u7e8jaS2njmRW2lo3DAH04qe gAooooAKKKKACiiigAooooAKKKKACiiigAooooAKz9avv7N0a6uwcPGnycZ+Y8L+pFaFYnili2iP bIVE11IlvHu6bmYf0zQBJ4Ztxa+G7FM5LxCUn3b5v61r0yNEijWNFCooCqB0Ap9ABWNoll/ZtzqV rv3brj7QDjHyuP8AFWH4Vs1nFmTxEq7cLNakk+pRx/8AHDQBo1xOvXtz/wAJG39lLd/bbRVWRFQv FIpG4A46de/5jFdtWVf6LFeXS3kU89reKuwTQtjcvXDDoRQBoQyGWBHZGjZlDFG6r7Gpa561OrWN yBqmoNJApOJFt12MO24jlT9Rj3Nb6OsihkYMp6EHIoAdUFzcQ2dvJc3DrHHGuXc9hWZ4guGsI7PU R/q7edfO/wCubfKf1IqbVb3S10+RL2eFopU4jyGL+m0dz0xQBJp2s6fqu77FcrKU5YYII/A1oVy3 g7TI4LabUw297tiU5ztTPTPrnr9K6OK4hneRIpUdom2uFOdp9DQBNXPeLbqGDSWja3jnuJsrCHUE L6vz0xnr9K6GuKm+2+JPFPkBvLsdPlO7ABGR+hY/+Oj3zQB0Hh/S10jSIbbC+Z96Uqc7mPfoPatW iigAooooAKKKKACiiigAooooAKKKKACiiigAooooAKxdUJuNf0i0ChkVnuXz22rhT+bVtViWY+0e K9SmK4FtDHbqfXOXP8xQBt0UUUAFYusXQ07UdNvH5jZmtWAHOZNpB/8AHK2q5nxzEJNBjcvt8q4R 8Y+91GP1/SgDpc0tRW8flWsMZ6ogX9KloAK5xIJNM8QiKICWC5LTYD7Giyec9nXLcA8jnHSujrk4 bu01DWtVa8P7nK2kZdcKQuSw3dM7jn16VFSXLG40dRPBFcwPDMivG4wyt0IqhY+H9K0199rZRo+c 7my5H0LZxUK2N3HtNvq10EHRZAsgP4kZP51Yjub2IqtxbpKpODJA3P1KHoPoWNZxxFOXUHFlZ/Dd t57yQ3V9bRO254IJykZPfjtn2rRtrW10208q3jSCBBk44H1J/DqaoXGuNaSsk+nXeMfuzEnmbznp xwD9TWHaXH9va9c2GtQTxhVDwWu7CDHXdg/Ment1rVST2YjUl1aXWZJbLRywjDbJb7HyIO+z+83/ AOutawsLfTbNLW2TZGn5k+p96kgt4bWFYYI0jjThUUYAqaqAKKKKACiiigAooooAKKKKACiiigAo oooAKKKKACiiigBB0rF8Os0p1SdsYkv5NrDuq4UfyrSv7kWWn3F0RnyYmkx64GcVU8O232Tw9Yxf Nnyg7buoZvmP6mgDUooooAKyPErwpoknnAFGkjUg+m9c/pmtesbxPbC60Vo+dxljVMf3mYKP/QqA NWGTzYI5dpG9Q2D2zUlIBjpS0ANZ1RCzHCqMkntWR4btwmhRyPFGjXTNcOq9PnOR/wCO7am16Qro d2q/elTyV+rnb/Wr8MSwQxxIMIihVHoBQBROnNbuXsJBGD96B8mM/wC7/cP049jVa91VtNjBu7Vt 7HCCKRW3n0GSD+lbLsqKWdgoHcnFcp4vEtreadqXltJbQMyyY/gzjB/SsZ0ITd2hptFlddmgUvqF ibWI4CyebuHJ43ccU+6WWPxVo8jRgeak0bYOcfLu/pWHrOv22q6f9hsQ01zcYRUC+9b+qxyWGm6X O8wJsZ4fOlbqVI8tj/49mnChCDvFBdm9RRRWogooooAKKKKACiiigAooooAKKKKACiiigAooooAK KKKAMXxTufQ5LdG2vcyRwqf95x/TNbIAAAAwB2rF1wCa/wBGtScbrvzeO+xS3+FbdABRRRQAVka6 ssgsIouN14hYkcDblhn/AIEFrXrNv2zqGnQ4yXlZj7Kqk5/762D8aANKiiigDM1Mebc6dbf37jef ogLfzxWnWeR5uvr6W9sSfrI3H/os/nWhQBDc28d3ay28oJjlQow9iMVT0WZ7nSI1uCGni3QTc7ss hKnP1xn8a0qytNHkavqtvgBWkS4X/gS4P6ofzoAuW+n2Vo5e2s7eFm4JjjVSfyqlrV9YQrHp9+zK t+GiDAcLxjJPbqKt6hfRafaG4lZRyFQMwUMx6DPb69hk1k+IoopNOs7y58mSKGZDM2CVMb/I2P8A voH8KAL+iXUlxpirOc3MBME/P8a8Z/Hg/jWlXPabY3Oj6uU85riyu1wjnlldRwG9fl43f7I/HoaA CiiigAooooAKKKKACiiigAooooAKKKKACiiigAooooAxL0b/ABZpQx/q4Zn/APQRW3WJKw/4TS2B /wCfF8f99itugAooooAKzV/feIZCD8ttbBP+BSNk/pGv51pVmaSfNl1C5A/1t0wH0QBP/ZaANOsD VtQu5tVg0fTJRFOw824n2hvJj+nqf8PXNbF3cpZ2k1zJ9yJC7Y9AKy/DdrIllJqFzn7Xft50hP8A CP4V57AfzoAs2EPlXlyN7yGOOKDe5yzbQWyT6/PWlUMMPlS3D/8APWQP/wCOqv8ASpqACsxh5fiR D0E1qR9SrD/4qtOs2+GzVtMm9Wkh/wC+k3f+yUAV5NKj1PVzeXqmSCAeXBA4+Xd/E+O/p+H0rM8Y 3sxRNOgBw8bvLgdRsbaP/HSfwFdbXHapNKJEvYUR5X1VYIw/QgIyflndQB16EMisp4IyKdSAAAAD AHaloAKKKKACiiigAooooAKKKKACiiigAooooAKKKKACiiigDBmGPHNs2fvWLDH/AAOt6sG6Ozxp YE/xWsi/+PCt6gAooooAhuZltrWWdzhY0ZyfYDNVtGhaDR7VHGHMYdwezN8x/U1HrgElglpk5upk hwO6k5f/AMdDVpE4GTQBjaxm/u7bSFGUkPnXJ9IlPT/gTYH4GtqsnRx55uNRcktdSEp7Rr8qj+Z/ GtagAooooAqzXLx39tAFBSUPlu4IAx/WoNV+WTT5f+ed2v8A48rJ/wCzUahJ5d/phx96dkz9UY/0 qTU4XntY1jXcwuIX/ASqSfyBoAszzJbwSTSHCRqXY+wGTXMz2sp0jw7Hg+a19FPID6kNI39a19e3 NpEsKMFNwyW+fZ3Cn9CaSfbN4is4ucW0EkxA6BmIVf08ygDUooooAKKKKACiiigAooooAKKKKACi iigAooooAKKKKACiiigDI1W0P2u1v4jiWKREOTxsZvm/GteobmEXFrJCf41K1Dp1wbmyRnIMq/JJ /vDg/wCP40AXKKKKAM7UGxqOkr63LH/yDJU2pymDS7uUdViYj8qraiD/AGvo7dhPID/36en6623Q b9vSBj+lAFmztxa2cEAAAijVOPYVRuru5t9ag4JsmibzX7RkdzWgwFxbkLIyhxw6HnHqK5rVoovD WnebC0krTzKJRM+7evORQB0FnqVnqAY2syyhepWrdU9NktZbGOWyRFhYZAUYxVygDG16QxPpbjtf xL/30GX+tbBrF8Tny9Pt5v8Anjdwyfk1bdAHPC6fUJLOOVhuTVJUwB2jEhX+S1ctjnxNf57W0IH/ AH1JVazsmbXLiQNtSC6aXb/e3xKP/ivzqzbA/wDCS6gccfZ4Rn8XoA1aKKKACiiigAooooAKKKKA CiiigAooooAKKKKACiiigAooooAKw7m9j0bV187ctrfkAPjhJenPpkY/KtyqWqadBquny2k65Vx8 rYyVbsRQBdormdL1e4065XR9ckCzqP3Fyx+WZfc/3v5/Xr01AGRrr+TFZ3PmBBDdxsST/Cco36MT +FW9Vi87SLyLrvgcfoao+KrQ3fhy7VR88a+Yv/AeT+mR+NWoLn7foSXIwTNb7iB6leRQA7R5hcaL ZSgYDQr/ACrmPHkrOtvbopYJmRyB93sM10HhoY8N6f8A9cRVy7sob2Py5l3JuBZf72OxoA4rwTdX qzyQRlHt+rIzYK+6131Z+naTbaajrCgw0jOpI5XPatCgDA8ZceGbl+6shH13Ct4HcARWH4uXd4dm XAw0kYP03rW1Gu1NvpQBQs2zrmpr6CE/+OmpLYf8TW+b/rmv6Z/rUdmuNb1JvUQj9DTdLkMt/quf 4bgJ+SLQBqUUUUAFFFFABRRRQAUUUUAFFFFABRRRQAUUUUAFFFFABRRRQAUUUUAZus6Pb61YNbTj aw5jkA5RvX/61c5pmp6voVwmn6qoliztikZguV/2XPDf7rYPT6V2tRzQRXELRTRpJGw+ZXXINAD+ CPUGsu506eKwaDSJEtWAIVXXcn/1uv8A9aqbaLf6a27Q70LF/wA+d1l4/wDgJ6r9KuRarPGp/tGw mtSvWRf3sf5ryPxFACeG4Li20C0guVCyopGAc4GeK1qggnilhV4ZFljb7rowIP4ip6ACikJAHJA+ tAII4OaAMLxkGPha829thz/wNa0rrU7OytVuridY4WAIY5Oc03UTYzRfYb2aNfPGFR2ClsEdPXtX P3ep3Vr4Esbu0jRgI40l8wZG37pyD1BPH40Aauj3EFze6ncQzJLE8qFXVsjGxf8A69JpLKmqashY AvchlGfvDYvSuemubDRfFMctogisZR5V0q8ocqGDY7DDD8jRMlrqEGrXWnW8FtLZeXcwSom1iuzd n9D7fzAB3dFVrG5F7p9vdAYE0ayY9MjOKs0AFFFFABRRRQAUUUUAFFFFABRRRQAUUUUAFFFFABRR RQAUUUUAFFFFABSEA9aWigDCufC1lLPJcW011ZTSHLtbSld31FNj8PXUSsq6/qW1hj5nDEfiRxW/ SE4HNAHOt4YufLZY/EGpgnoXk3YqCTwfM4H/ABPr/PfLZH866qigDk5/AWmyocT3Il6+YzBiT71L H4IsF00Wb3N2TnLMkm0Mf93kV0+cUUAch/wg6rG0cV+yK/yv+7ydvt83BxkHtz0FTHwYjTO76pe7 TEIcIVU7AMbTgcj8K6migCnpliumadFZo7usQIDPjOM1cpMigEGgBaKKTcKAFooooAKKM0ZoAKKK M0AFFFFABRRRQAUUUUAFFFFACZ+bHtS0n8X4UtABRRRQAUUUUAFFFFABRRRQAUUUUAI33TQehpaK ACiiigBD0oH3RS0UAFFFFACHrS0UUABooooAKKKKACiiigAooooAKKKKAE/ipaKKACiiigAooooA KKKKACiiigBKWiigBO9B7UtFABRRRQAUUUUAFFFFACdzS0UUAFFFFABRRRQAUUUUAFFFFABRRRQA UUUUAFFFFABRRRQAUUUUAFFFFACEciloooAKKKKACiiigAooooAKKKKACiiigAooooAKKKKAP//Z  "
       height="286"
       width="250" />
  </g>
  <g
     inkscape:groupmode="layer"
     id="layer2"
     inkscape:label="Calque2">
    <path
       style="fill:#f6e150;fill-opacity:1;stroke:none"
       inkscape:path-effect="#path-effect3997"
       inkscape:original-d="m 124.21793,102.43384 c -0.0561,2.43867 -0.55337,4.28286 -1.51938,6.2969 0.15911,-0.61687 0.42763,-0.84362 0.76095,-0.72207 1.83728,1.14831 3.84754,3.23125 5.69729,4.35283 2.93201,0.92431 5.85266,1.89381 8.79177,2.7899 1.76207,0.30925 3.51785,0.68919 5.28382,0.95458 2.04816,-0.0128 4.09632,-0.0256 6.14448,-0.0384 1.80564,-0.91547 3.61128,-1.83095 5.41692,-2.74642 -0.37919,-1.4386 -0.75837,-2.87721 -1.13756,-4.31581 -0.49358,-0.2119 -0.9737,-0.55886 -1.47552,-0.68792 -1.53625,0.40205 -3.06667,0.86985 -4.60655,1.23098 -3.05821,-0.28561 -6.1258,-0.52735 -9.17817,-0.84033 -2.18061,-0.7704 -4.39357,-1.4712 -6.55394,-2.28515 -2.08182,-1.24476 -4.57723,-2.87169 -6.65905,-4.11645 z"
       id="path3995"
       d="m 124.21793,102.43384 -1.51938,6.2969 0.76095,-0.72207 5.69729,4.35283 8.79177,2.7899 5.28382,0.95458 6.14448,-0.0384 5.41692,-2.74642 -1.13756,-4.31581 -1.47552,-0.68792 -4.60655,1.23098 -9.17817,-0.84033 -6.55394,-2.28515 -6.65905,-4.11645 -0.96506,0.12736 z"
       inkscape:connector-curvature="0"
       sodipodi:nodetypes="ccccccccccccccc" />
    <path
       style="fill:none;stroke:#000000;stroke-width:1px;stroke-linecap:butt;stroke-linejoin:miter;stroke-opacity:1"
       d="m 118.30705,51.682364 c -3.1677,-0.17202 -3.95307,5.298076 -4.04246,8.469181 -0.22536,7.994654 0.8383,16.338352 0.8383,16.338352 0.41671,1.432583 -2.34701,2.371701 -3.95578,2.577549 -1.15,0.527883 -3.97922,1.259054 -3.90569,1.144705 0.0735,-0.114348 5.98692,2.404875 5.3947,4.719582 -0.53975,2.109634 -4.99977,2.643005 -4.99977,2.643005 3.58673,3.579215 10.76447,2.566666 9.16305,3.426417 l -3.34102,1.648828 8.67925,3.79629 -2.72874,0.534179 c 5.067,4.160818 8.48987,7.877918 14.78633,10.024608 3.06217,1.00725 6.23474,1.84098 9.45178,2.0462 5.54131,0.44944 9.68955,-0.33333 13.90005,-3.55565 l 6.77383,-3.8008 10.41525,-9.647816 c 0,0 -4.16275,3.128698 -4.73776,1.567769 -0.48376,-1.313212 7.58113,-5.883743 7.08707,-6.512273 0,0 -5.36406,0.792879 -4.34622,-0.241196 l 5.68712,-5.777813 c 1.69881,-1.7259 -5.74363,0.588532 -8.10895,-2.133195 1.21801,-3.144142 2.96712,-12.431747 0.83574,-19.551648 -2.61496,-0.796608 -8.09608,-0.03493 -8.09099,-0.07018 0,0 -2.52624,0.02721 -3.80061,0.504137 -1.16115,0.434559 -1.52682,1.566294 -2.42183,1.341402 -2.56438,-0.644362 -5.73013,-1.964871 -8.9248,-1.808965 -2.26588,0.110579 -3.24137,-0.34013 -6.80507,0.09457 -1.46044,0.178143 -4.41226,0.142434 -6.11611,1.11141 -3.00407,1.708402 -6.82474,-8.353096 -16.68667,-8.888648 z"
       id="path3069"
       inkscape:connector-curvature="0"
       sodipodi:nodetypes="sscczsccccccccccscsscccssssss" />
    <path
       style="fill:none;stroke:#000000;stroke-width:0.82101595px;stroke-linecap:butt;stroke-linejoin:miter;stroke-opacity:1"
       d="m 169.79171,61.302485 c -0.59858,0.58968 -1.44437,0.961381 -1.96786,1.691882 -0.9,1.018821 -1.61554,2.181333 -2.2175,3.391014 -0.50447,0.763975 -0.89337,1.633746 -1.09381,2.530078 -0.40443,0.87302 0.27549,1.731081 0.94982,2.190365 0.89786,0.865985 1.40223,2.046846 1.88444,3.171921 0.32773,0.850917 1.67642,3.380659 1.5768,1.478351"
       id="path3125"
       inkscape:connector-curvature="0"
       sodipodi:nodetypes="ccccccc" />
    <path
       style="fill:none;stroke:#000000;stroke-width:1px;stroke-linecap:butt;stroke-linejoin:miter;stroke-opacity:1"
       d="m 124.87668,101.51816 c -1.43526,3.77426 -2.40522,7.80994 -3.43417,11.05309 -0.42279,2.26572 -1.00143,4.51521 -1.39602,6.79966 -0.91121,3.478 -1.82142,6.97006 -2.65941,10.47635 -1.04137,4.00875 -1.55894,8.13245 -2.63111,12.13545 -0.92162,3.90915 -1.60284,7.88612 -1.75746,11.9025 l 0.006,0.36214 0.004,0.36081"
       id="path3127"
       inkscape:connector-curvature="0"
       sodipodi:nodetypes="cccccccc" />
    <path
       style="fill:none;stroke:#000000;stroke-width:1px;stroke-linecap:butt;stroke-linejoin:miter;stroke-opacity:1"
       d="m 113.73375,145.84289 c -3.88781,2.09625 -6.87859,5.53646 -9.44411,9.0553 -2.08377,3.54695 -3.82063,7.29948 -5.475052,11.0587 -2.274634,6.25269 -3.011404,12.92834 -3.745402,19.49944 -0.08246,3.62481 -0.182476,7.25063 -0.711847,10.84218 -0.261749,5.98805 0.820826,11.94851 0.489647,17.9464"
       id="path3129"
       inkscape:connector-curvature="0" />
    <path
       style="fill:none;stroke:#000000;stroke-width:1.16177046px;stroke-linecap:butt;stroke-linejoin:miter;stroke-opacity:1"
       d="m 85.839298,57.772716 c -0.51641,17.059523 9.040455,32.483004 8.845443,49.489764 1.445768,16.62758 -2.75303,31.36578 -6.195947,47.52395 -2.546711,9.9288 -5.511637,21.59895 -4.536432,31.94161 0.589501,7.6842 1.615434,15.73277 5.120259,22.63092 1.605747,1.59887 3.520713,4.19486 6.085199,3.75101"
       id="path3131"
       inkscape:connector-curvature="0"
       sodipodi:nodetypes="cccccc" />
    <path
       style="fill:none;stroke:#000000;stroke-width:1px;stroke-linecap:butt;stroke-linejoin:miter;stroke-opacity:1"
       d="M 85.660299,58.651556 C 85.259214,62.131577 85.693498,69.437047 84.76069,70.67326 81.495783,64.96839 81.937119,58.428688 81.157616,52.166638 81.420769,57.61239 80.913539,62.274082 80.529251,67.700986 76.467222,61.99067 74.713924,54.741137 74.26157,47.817395 73.445471,51.028426 75.409067,60.443725 73.082588,59.381105 71.039404,57.406313 68.996244,46.040461 68.831584,54.467784 68.103826,65.48483 67.303155,76.675457 63.86289,87.247303 59.936376,104.12343 56.979571,121.227 54.39228,138.35282 c -0.717784,9.92005 -0.820502,19.89506 -1.023229,29.83445 0.383056,12.31054 3.185496,25.11686 11.23095,34.79811 5.561703,9.5011 15.34844,15.32859 25.468302,18.91023 9.064479,3.9533 19.296687,3.55448 28.992867,3.71322 6.05121,1.08926 11.98303,-2.19767 17.96078,-1.09135 -1.29278,-9.44452 -2.74168,-19.14708 -2.41256,-28.78682 0.49455,-12.11962 0.9423,-24.87837 -3.53349,-36.32747 l 0.0803,0.44102 0.12476,0.2568"
       id="path3133"
       inkscape:connector-curvature="0" />
    <path
       style="fill:none;stroke:#000000;stroke-width:1px;stroke-linecap:butt;stroke-linejoin:miter;stroke-opacity:1"
       d="m 131.39381,78.101772 c -0.043,0.07715 0.1619,-0.04651 0.89919,-1.966619 1.05092,-2.263805 4.10824,-2.098039 5.7511,-0.96772 0.74455,0.512427 1.03178,1.408716 1.31438,2.219217 0.35605,0.567894 0.34829,1.228949 0.34344,1.871807 0.0131,0.28766 0.0485,0.473767 0.0388,0.06522"
       id="path3151"
       inkscape:connector-curvature="0"
       sodipodi:nodetypes="cccccc" />
    <path
       style="fill:none;stroke:#000000;stroke-width:0.87380612px;stroke-linecap:butt;stroke-linejoin:miter;stroke-opacity:1"
       d="m 152.19144,79.147489 c -0.037,0.06859 0.13913,-0.04132 0.77271,-1.747367 0.95833,-2.201806 3.639,-2.238537 4.94217,-0.859832 0.63982,0.455292 0.88665,1.251657 1.1295,1.971797 0.30597,0.504586 0.2993,1.091938 0.29513,1.663127 0.0113,0.25559 0.0417,0.420951 0.0333,0.05793"
       id="path3151-3"
       inkscape:connector-curvature="0"
       sodipodi:nodetypes="cccccc" />
    <path
       style="fill:#000000;stroke:#000000;stroke-width:1px;stroke-linecap:butt;stroke-linejoin:miter;stroke-opacity:1;fill-opacity:1"
       d="m 142.39607,87.30543 c 1.06995,-1.370189 1.91843,-1.367971 3.13692,-1.239186 1.21847,0.128803 2.14649,0.61409 3.17723,1.565312 -1.62121,1.499607 -2.31822,3.202543 -3.20196,3.260987 -0.88372,0.05844 -1.51655,-1.263016 -3.11219,-3.587113 z"
       id="path3178"
       inkscape:connector-curvature="0"
       sodipodi:nodetypes="cscsc" />
    <path
       style="fill:none;stroke:#000000;stroke-width:1px;stroke-linecap:butt;stroke-linejoin:miter;stroke-opacity:1"
       d="m 145.64388,91.058926 c -2.74283,8.130862 -10.67983,6.358472 -11.74684,-2.587792"
       id="path3180"
       inkscape:connector-curvature="0"
       sodipodi:nodetypes="cc" />
    <path
       style="fill:none;stroke:#000000;stroke-width:1px;stroke-linecap:butt;stroke-linejoin:miter;stroke-opacity:1"
       d="m 155.20034,94.807902 c -1.97566,4.774727 -9.22746,2.414975 -9.73354,-3.906101"
       id="path3182"
       inkscape:connector-curvature="0"
       sodipodi:nodetypes="cc" />
    <path
       style="fill:none;stroke:#000000;stroke-width:1px;stroke-linecap:butt;stroke-linejoin:miter;stroke-opacity:1"
       d="m 153.66327,109.10049 c -1.93781,-4.05601 4.03055,10.36459 5.40242,16.06273 2.44757,10.16611 1.4351,7.19665 3.61403,12.81195 0.17793,0.45853 -4.90295,-2.91317 -5.18376,-3.05732 -0.16402,-0.0842 0.67564,5.3095 1.0202,10.6157 0.42194,6.49778 0.92378,13.03541 0.22059,19.53287 -1.8314,16.92209 -4.37666,33.97439 -3.69481,51.12516"
       id="path3184"
       inkscape:connector-curvature="0"
       sodipodi:nodetypes="csscssc" />
    <path
       style="fill:none;stroke:#000000;stroke-width:1px;stroke-linecap:butt;stroke-linejoin:miter;stroke-opacity:1"
       d="m 136.87118,224.51428 c 7.63859,2.76594 6.52066,-2.64396 5.23891,-6.62418"
       id="path3188"
       inkscape:connector-curvature="0"
       sodipodi:nodetypes="cc" />
    <path
       style="fill:none;stroke:#000000;stroke-width:1px;stroke-linecap:butt;stroke-linejoin:miter;stroke-opacity:1"
       d="m 141.39319,225.0663 c 6.00848,0.42555 7.56584,-1.48152 5.51465,-6.58173"
       id="path3190"
       inkscape:connector-curvature="0"
       sodipodi:nodetypes="cc" />
    <path
       style="fill:none;stroke:#000000;stroke-width:1px;stroke-linecap:butt;stroke-linejoin:miter;stroke-opacity:1"
       d="m 143.35089,180.43794 c 6.13533,10.08018 0.89251,27.70079 2.78558,34.66516"
       id="path3194"
       inkscape:connector-curvature="0"
       sodipodi:nodetypes="cc" />
    <path
       style="fill:none;stroke:#000000;stroke-width:1px;stroke-linecap:butt;stroke-linejoin:miter;stroke-opacity:1"
       d="m 135.63039,127.5718 c 2.8211,16.27315 7.14444,30.89768 6.45213,47.60075"
       id="path3196"
       inkscape:connector-curvature="0" />
    <path
       style="fill:none;stroke:#000000;stroke-width:1px;stroke-linecap:butt;stroke-linejoin:miter;stroke-opacity:1"
       d="m 152.20189,141.11742 c -1.97124,3.51321 -4.29611,7.03746 -5.0459,11.04032"
       id="path3198"
       inkscape:connector-curvature="0" />
    <path
       style="fill:none;stroke:#000000;stroke-width:1px;stroke-linecap:butt;stroke-linejoin:miter;stroke-opacity:1"
       d="m 158.10256,142.68855 c -4.19468,13.12758 -7.9793,26.71112 -7.61021,40.63686"
       id="path3200"
       inkscape:connector-curvature="0" />
    <path
       style="fill:none;stroke:#000000;stroke-width:1px;stroke-linecap:butt;stroke-linejoin:miter;stroke-opacity:1"
       d="m 122.64339,107.65676 c 6.24003,7.40351 26.39743,12.22275 32.6467,5.85986"
       id="path3202"
       inkscape:connector-curvature="0"
       sodipodi:nodetypes="cc" />
    <path
       sodipodi:type="arc"
       style="fill:#f6e150;fill-opacity:1;fill-rule:nonzero;stroke:#00100f;stroke-width:1;stroke-linecap:round;stroke-linejoin:bevel;stroke-miterlimit:4;stroke-opacity:1;stroke-dasharray:none;stroke-dashoffset:0"
       id="path3217"
       sodipodi:cx="145.77733"
       sodipodi:cy="120.37436"
       sodipodi:rx="4.0256906"
       sodipodi:ry="4.6496725"
       d="m 149.80302,120.37436 a 4.0256906,4.6496725 0 1 1 -8.05138,0 4.0256906,4.6496725 0 1 1 8.05138,0 z"
       transform="translate(1.4062344,1.0191063)" />
    <path
       style="fill:none;stroke:#000000;stroke-width:1px;stroke-linecap:butt;stroke-linejoin:miter;stroke-opacity:1"
       d="m 117.04603,53.856439 c 17.18976,6.061357 0.32044,27.381079 0.19302,17.961749"
       id="path4012"
       inkscape:connector-curvature="0" />
    <path
       style="fill:none;stroke:#000000;stroke-width:1px;stroke-linecap:butt;stroke-linejoin:miter;stroke-opacity:1"
       d="m 146.713,224.26801 c 4.96286,1.45011 4.89545,-2.599 3.93184,-5.44295 -1.00856,-2.97659 -5.1467,-4.51773 -8.46825,-3.22891"
       id="path4024"
       inkscape:connector-curvature="0"
       sodipodi:nodetypes="csc" />
    <path
       style="fill:none;stroke:#000000;stroke-width:1px;stroke-linecap:butt;stroke-linejoin:miter;stroke-opacity:1"
       d="m 150.34948,223.6541 c 2.46391,1.51752 4.74383,0.56747 5.43566,-0.48667 1.33699,-2.03717 0.25332,-3.39299 -2.30305,-4.81724"
       id="path4026"
       inkscape:connector-curvature="0"
       sodipodi:nodetypes="csc" />
    <path
       style="fill:none;stroke:#000000;stroke-width:1px;stroke-linecap:butt;stroke-linejoin:miter;stroke-opacity:1"
       d="m 155.15218,223.83604 c 4.0318,1.14089 5.12514,-1.45693 4.23525,-4.03758 -1.24707,-3.61647 -2.87159,-3.09594 -6.17114,-3.81569"
       id="path4028"
       inkscape:connector-curvature="0"
       sodipodi:nodetypes="csc" />
    <path
       style="fill:#000000;stroke:#000000;stroke-width:0.69999999000000002;stroke-linecap:butt;stroke-linejoin:miter;stroke-miterlimit:4;stroke-opacity:1;stroke-dasharray:none;fill-opacity:1"
       d="m 107.31923,177.94215 c -2.61155,8.0271 6.34332,4.82316 0,0 z"
       id="path4032"
       inkscape:connector-curvature="0"
       sodipodi:nodetypes="cc" />
    <path
       style="fill:#000000;stroke:#000000;stroke-width:0.69999999000000002;stroke-linecap:butt;stroke-linejoin:miter;stroke-miterlimit:4;stroke-opacity:1;stroke-dasharray:none;fill-opacity:1"
       d="m 115.4792,182.66523 c -6.59637,-2.79362 -5.112,5.55791 0,0 z"
       id="path4034"
       inkscape:connector-curvature="0"
       sodipodi:nodetypes="cc" />
    <path
       style="fill:#000000;stroke:#000000;stroke-width:0.69999999000000002;stroke-linecap:butt;stroke-linejoin:miter;stroke-miterlimit:4;stroke-opacity:1;stroke-dasharray:none;fill-opacity:1"
       d="m 102.93349,186.72473 c 7.72836,1.0181 3.96254,-6.12547 0,0 z"
       id="path4032-6"
       inkscape:connector-curvature="0"
       sodipodi:nodetypes="cc" />
    <path
       style="fill:#000000;stroke:#000000;stroke-width:0.72059631000000002px;stroke-linecap:butt;stroke-linejoin:miter;stroke-opacity:1;fill-opacity:1"
       d="m 109.5623,185.95606 c -0.11855,4.59955 -0.14408,5.7554 -0.23232,11.01137 l 1.12843,-1.60368 0.64682,1.61106 1.36579,4.10242 0.0812,-1.23834 0.0212,-4.09852 2.46668,2.04188 1.46159,1.49686 -2.22586,-5.39745 2.24821,0.52076 -6.96191,-8.44638 z"
       id="path4057"
       inkscape:connector-curvature="0"
       sodipodi:nodetypes="ccccccccccccc"
       inkscape:transform-center-x="-0.9083702"
       inkscape:transform-center-y="0.53157824" />
  </g>
</svg>
